{
  "type": "datasource",
  "name": "Jaeger",
  "id": "jaeger",
  "category": "tracing",

  "metrics": false,
  "alerting": false,
  "annotations": false,
  "logs": false,
  "streaming": false,
  "tracing": true,

  "info": {
    "description": "开源、端到端分布式跟踪",
    "author": {
      "name": "Grafana Labs",
      "url": "https://grafana.com"
    },
    "logos": {
      "small": "img/jaeger_logo.svg",
      "large": "img/jaeger_logo.svg"
    },
    "links": [
      {
        "name": "了解更多",
        "url": "https://www.jaegertracing.io"
      },
      {
        "name": "GitHub项目",
        "url": "https://github.com/jaegertracing/jaeger"
      }
    ]
  }
}
