{
  "type": "panel",
  "name": "测量",
  "id": "gauge",

  "info": {
    "description": "标准仪表可视化",
    "author": {
      "name": "Grafana Labs",
      "url": "https://grafana.com"
    },
    "logos": {
      "small": "img/icon_gauge.svg",
      "large": "img/icon_gauge.svg"
    }
  }
}
