{
  "type": "panel",
  "name": "统计图",
  "id": "histogram",

  "state": "beta",

  "info": {
    "author": {
      "name": "Grafana Labs",
      "url": "https://grafana.com"
    },
    "logos": {
      "small": "img/histogram.svg",
      "large": "img/histogram.svg"
    }
  }
}
