{
  "type": "panel",
  "name": "状态时间线",
  "id": "state-timeline",

  "state": "beta",

  "info": {
    "description": "状态变化和持续时间",
    "author": {
      "name": "Grafana Labs",
      "url": "https://grafana.com"
    },
    "logos": {
      "small": "img/timeline.svg",
      "large": "img/timeline.svg"
    }
  }
}
