{
  "type": "datasource",
  "name": "Elasticsearch",
  "id": "elasticsearch",
  "category": "logging",

  "info": {
    "description": "开源日志记录和分析数据库",
    "author": {
      "name": "Grafana Labs",
      "url": "https://grafana.com"
    },
    "keywords": ["elasticsearch"],
    "logos": {
      "small": "img/elasticsearch.svg",
      "large": "img/elasticsearch.svg"
    },
    "links": [{ "name": "Learn more", "url": "https://grafana.com/docs/features/datasources/elasticsearch/" }]
  },

  "alerting": true,
  "annotations": true,
  "metrics": true,
  "logs": true,

  "queryOptions": {
    "minInterval": true
  }
}
