{
  "type": "panel",
  "name": "文本",
  "id": "text",

  "skipDataQuery": true,

  "info": {
    "description": "支持标记和html内容",
    "author": {
      "name": "Grafana Labs",
      "url": "https://grafana.com"
    },
    "logos": {
      "small": "img/icn-text-panel.svg",
      "large": "img/icn-text-panel.svg"
    }
  }
}
