{
  "type": "panel",
  "name": "热力图",
  "id": "heatmap",

  "info": {
    "description": "像一个随时间变化的直方图",
    "author": {
      "name": "Grafana Labs",
      "url": "https://grafana.com"
    },
    "logos": {
      "small": "img/icn-heatmap-panel.svg",
      "large": "img/icn-heatmap-panel.svg"
    },
    "links": [
      { "name": "Brendan Gregg - Heatmaps", "url": "http://www.brendangregg.com/heatmaps.html" },
      { "name": "Brendan Gregg - Latency Heatmaps", "url": " http://www.brendangregg.com/HeatMaps/latency.html" }
    ]
  }
}
