{
  "type": "panel",
  "name": "可视化",
  "id": "news",

  "skipDataQuery": true,

  "state": "beta",

  "info": {
    "description": "RSS源阅读器",
    "author": {
      "name": "Grafana Labs",
      "url": "https://grafana.com"
    },
    "logos": {
      "small": "img/news.svg",
      "large": "img/news.svg"
    }
  }
}
