{
  "type": "panel",
  "name": "柱仪表",
  "id": "bargauge",

  "info": {
    "description": "水平和垂直仪表",
    "author": {
      "name": "Grafana Labs",
      "url": "https://grafana.com"
    },
    "logos": {
      "small": "img/icon_bar_gauge.svg",
      "large": "img/icon_bar_gauge.svg"
    }
  }
}
