{
  "type": "panel",
  "name": "表格",
  "id": "table",

  "models": {
    "version": [1, 0],
    "changed": "2021/03/30"
  },

  "info": {
    "description": "支持多种列样式",
    "author": {
      "name": "Grafana Labs",
      "url": "https://grafana.com"
    },
    "logos": {
      "small": "img/icn-table-panel.svg",
      "large": "img/icn-table-panel.svg"
    }
  }
}
